[
  {
    "name": "Ancient Automaton",
    "row": "Melee",
    "originalPoint": 3,
    "image": "AncientAutomaton.png",
    "description": "Ancient Automaton, so old!",
    "rarity": "normal",
    "ability": []
  },
  {
    "name": "Ancient Automaton",
    "row": "Melee",
    "originalPoint": 3,
    "image": "AncientAutomaton.png",
    "description": "Ancient Automaton, so old!",
    "rarity": "normal",
    "ability": []
  },
  {
    "name": "Automaton C",
    "row": "Melee",
    "originalPoint": 4,
    "image": "Assembling Automatons Automaton C.png",
    "description": "What a big blade! Must be hurt",
    "rarity": "rare",
    "ability": []
  },
  {
    "name": "Automaton C",
    "row": "Melee",
    "originalPoint": 4,
    "image": "Assembling Automatons Automaton C.png",
    "description": "What a big blade! Must be hurt",
    "rarity": "rare",
    "ability": []
  },
  {
    "name": "God Warrior",
    "row": "Melee",
    "originalPoint": 2,
    "image": "Boss God Warrior Skoll.png",
    "description": "I can stand all day",
    "rarity": "normal",
    "ability": []
  },
  {
    "name": "God Warrior",
    "row": "Melee",
    "originalPoint": 2,
    "image": "Boss God Warrior Skoll.png",
    "description": "I can stand all day",
    "rarity": "normal",
    "ability": []
  },
  {
    "name": "Goddess Aphrodite",
    "row": "Ranged",
    "originalPoint": 2,
    "image": "Boss Goddess Aphrodite.png",
    "description": "Carry on, my heros",
    "rarity": "rare",
    "ability": [
      "Morale Boost"
    ]
  },
  {
    "name": "Goddess Aphrodite",
    "row": "Ranged",
    "originalPoint": 2,
    "image": "Boss Goddess Aphrodite.png",
    "description": "Carry on, my heros",
    "rarity": "rare",
    "ability": [
      "Morale Boost"
    ]
  },
  {
    "name": "Goddess Innova",
    "row": "Ranged",
    "originalPoint": 3,
    "image": "Boss Goddess Innova.png",
    "description": "Bring lights to your troops",
    "rarity": "rare",
    "ability": [
      "Morale Boost"
    ]
  },
  {
    "name": "Goddess Innova",
    "row": "Ranged",
    "originalPoint": 3,
    "image": "Boss Goddess Innova.png",
    "description": "Bring lights to your troops",
    "rarity": "rare",
    "ability": [
      "Morale Boost"
    ]
  },
  {
    "name": "Grand Sorceress",
    "row": "Siege",
    "originalPoint": 5,
    "image": "Boss Grand Sorceress Duessa.png",
    "description": "Great power comes with great price ",
    "rarity": "epic",
    "ability": [
      "Hero",
      "Double-Edge"
    ]
  },
  {
    "name": "Grand Sorceress",
    "row": "Siege",
    "originalPoint": 5,
    "image": "Boss Grand Sorceress Duessa.png",
    "description": "Great power comes with great price ",
    "rarity": "epic",
    "ability": [
      "Hero",
      "Double-Edge"
    ]
  },
  {
    "name": "Axe Warrior",
    "row": "Melee",
    "originalPoint": 2,
    "image": "Dark Elves Axe Warrior.png",
    "description": "Not a very handy weapon, I like Bows",
    "rarity": "normal",
    "ability": [
      "Double-Edge"
    ]
  },
  {
    "name": "Axe Warrior",
    "row": "Melee",
    "originalPoint": 2,
    "image": "Dark Elves Axe Warrior.png",
    "description": "Not a very handy weapon, I like Bows",
    "rarity": "normal",
    "ability": [
      "Double-Edge"
    ]
  },
  {
    "name": "Crystal Mage",
    "row": "Ranged",
    "originalPoint": 3,
    "image": "Dark Elves Crystal Mage.png",
    "description": "Not a very handy weapon, I like Axes",
    "rarity": "normal",
    "ability": []
  },
  {
    "name": "Crystal Mage",
    "row": "Ranged",
    "originalPoint": 3,
    "image": "Dark Elves Crystal Mage.png",
    "description": "Not a very handy weapon, I like Axes",
    "rarity": "normal",
    "ability": []
  },
  {
    "name": "Darkness Angel",
    "row": "Siege",
    "originalPoint": 3,
    "image": "Darkness Angel.png",
    "description": "Attack from above!",
    "rarity": "rare",
    "ability": [
      "Double-Edge"
    ]
  },
  {
    "name": "Darkness Angel",
    "row": "Siege",
    "originalPoint": 3,
    "image": "Darkness Angel.png",
    "description": "Attack from above!",
    "rarity": "rare",
    "ability": [
      "Double-Edge"
    ]
  },
  {
    "name": "Oriental Dragon",
    "row": "Siege",
    "originalPoint": 10,
    "image": "Dragon Oriental Dragon.png",
    "description": "A living dragon?!",
    "rarity": "epic",
    "ability": [
      "Hero"
    ]
  },
  {
    "name": "Oriental Dragon",
    "row": "Siege",
    "originalPoint": 10,
    "image": "Dragon Oriental Dragon.png",
    "description": "A living dragon?!",
    "rarity": "epic",
    "ability": [
      "Hero"
    ]
  },
  {
    "name": "Goblin Archer",
    "row": "Ranged",
    "originalPoint": 1,
    "image": "Goblin Archer.png",
    "description": "a little creature we can see everyday.",
    "rarity": "normal",
    "ability": []
  },
  {
    "name": "Goblin Archer",
    "row": "Ranged",
    "originalPoint": 1,
    "image": "Goblin Archer.png",
    "description": "a little creature we can see everyday.",
    "rarity": "normal",
    "ability": []
  },
  {
    "name": "Goblin Grunt",
    "row": "Melee",
    "originalPoint": 1,
    "image": "Goblin Grunt.png",
    "description": "He is a cat lover actually",
    "rarity": "normal",
    "ability": []
  },
  {
    "name": "Goblin Grunt",
    "row": "Melee",
    "originalPoint": 1,
    "image": "Goblin Grunt.png",
    "description": "He is a cat lover actually",
    "rarity": "normal",
    "ability": []
  },
  {
    "name": "Weird Books",
    "row": "Ranged",
    "originalPoint": 0,
    "image": "Library Book Swarm.png",
    "description": "Who sends BOOKs to battle?",
    "rarity": "normal",
    "ability": [
      "Morale Boost"
    ]
  },
  {
    "name": "Weird Books",
    "row": "Ranged",
    "originalPoint": 0,
    "image": "Library Book Swarm.png",
    "description": "Who sends BOOKs to battle?",
    "rarity": "normal",
    "ability": [
      "Morale Boost"
    ]
  },
  {
    "name": "Sins Sloth",
    "row": "Melee",
    "originalPoint": 5,
    "image": "Seven Sins Sloth.png",
    "description": "Seven Sins Sloth is also in Wrath",
    "rarity": "rare",
    "ability": [
      "Double-Edge"
    ]
  },
  {
    "name": "Sins Sloth",
    "row": "Melee",
    "originalPoint": 5,
    "image": "Seven Sins Sloth.png",
    "description": "Seven Sins Sloth is also in Wrath",
    "rarity": "rare",
    "ability": [
      "Double-Edge"
    ]
  },
  {
    "name": "Scorpion",
    "row": "Siege",
    "originalPoint": 3,
    "image": "Zodiac Creatures Scorpion.png",
    "description": "a powerful Hero",
    "rarity": "normal",
    "ability": []
  },
  {
    "name": "Scorpion",
    "row": "Siege",
    "originalPoint": 3,
    "image": "Zodiac Creatures Scorpion.png",
    "description": "a powerful Hero",
    "rarity": "normal",
    "ability": []
  }
]